   ______                         ___
 .' ___  |                      .' ..]
/ .'   \_|   .--.    _ .--.    _| |_    .---.   _ .--.   .---.   _ .--.    .---.   .---.
| |        / .'`\ \ [ `.-. |  '-| |-'  / /__\\ [ `/'`\] / /__\\ [ `.-. |  / /'`\] / /__\\
\ `.___.'\ | \__. |  | | | |    | |    | \__.,  | |     | \__.,  | | | |  | \__.  | \__.,
 `.____ .'  '.__.'  [___||__]  [___]    '.__.' [___]     '.__.' [___||__] '.___.'  '.__.'
